{
  "count": 48,
  "next": "https://api.octopus.energy?order=period&page=3&period_from=2021-01-03T12%3A18%3A15&period_to=2021-01-23T12%3A18%3A15",
  "previous": "https://api.octopus.energy?order=period&page=1&period_from=2021-01-03T12%3A18%3A15&period_to=2021-01-23T12%3A18%3A15",
  "results": [
    {
      "consumption": 0.063,
      "interval_start": "2018-05-19T00:30:00+0100",
      "interval_end": "2018-05-19T01:00:00+0100"
    },
    {
      "consumption": 0.071,
      "interval_start": "2018-05-19T00:00:00+0100",
      "interval_end": "2018-05-19T00:30:00+0100"
    },
    {
      "consumption": 0.073,
      "interval_start": "2018-05-18T23:30:00+0100",
      "interval_end": "2018-05-18T00:00:00+0100"
    }
  ]
}